…
TOTAL CASOS POR AÑO:
# A tibble: 8 × 3
   anio total_casos registros
  <dbl>       <dbl>     <int>
1  2018        1573       885
2  2019        2791      1271
3  2020       46411      9895
4  2021        3990      1163
5  2022         802       293
6  2023      146390     18024
7  2024      555012     34899
8  2025       17014      2932

TOTAL CASOS POR PROVINCIA:
# A tibble: 24 × 2
   provincia           total_casos
   <chr>                     <dbl>
 1 Buenos Aires             127159
 2 Córdoba                  119487
 3 Tucumán                  109313
 4 Santa Fe                  97948
 5 Salta                     46419
 6 CABA                      44844
 7 Chaco                     43703
 8 Santiago del Estero       34831
 9 Misiones                  26413
10 Jujuy                     25516
# ℹ 14 more rows
# ℹ Use `print(n = ...)` to see more rows
…
