…
DISTRIBUCIÓN POR PROVINCIA:
# A tibble: 6 × 4
  provincia           total_casos porcentaje_total promedio_casos
  <chr>                     <dbl>            <dbl>          <dbl>
1 Tucumán                  109313            45.0           21.5 
2 Salta                     46419            19.1            9.59
3 Santiago Del Estero       34831            14.4           12.3 
4 Jujuy                     25516            10.5           11.7 
5 La Rioja                  14349             5.91          10.8 
6 Catamarca                 12282             5.06           8.37

DISTRIBUCIÓN POR EDAD:
# A tibble: 28 × 3
   grupo_edad_agrupado total_casos porcentaje
   <chr>                     <dbl>      <dbl>
 1 De 45 A 65 Años           47929      19.7 
 2 De 25 A 34 Años           44312      18.3 
 3 De 35 A 44 Años           36324      15.0 
 4 De 20 A 24 Años           21018       8.66
 5 De 10 A 14 Años           20697       8.53
 6 De 15 A 19 Años           20489       8.44
 7 De 5 A 9 Años             14897       6.14
 8 Mayores De 65 Años        14643       6.03
 9 De 2 A 4 Años              4793       1.97
10 De 25 A 34 Anos            2995       1.23
# ℹ 18 more rows
# ℹ Use `print(n = ...)` to see more rows
