…
DISTRIBUCIÓN POR PROVINCIA:
# A tibble: 6 × 5
  provincia           total_casos porcentaje_total promedio_casos registros
  <chr>                     <dbl>            <dbl>          <dbl>     <int>
1 Tucumán                  109313            45.0           21.5       5093
2 Salta                     46419            19.1            9.59      4839
3 Santiago Del Estero       34831            14.4           12.3       2838
4 Jujuy                     25516            10.5           11.7       2188
5 La Rioja                  14349             5.91          10.8       1329
6 Catamarca                 12282             5.06           8.37      1467

DISTRIBUCIÓN POR EDAD:
# A tibble: 28 × 4
   grupo_edad_agrupado total_casos porcentaje registros
   <chr>                     <dbl>      <dbl>     <int>
 1 De 45 A 65 Años           47929      19.7       1991
 2 De 25 A 34 Años           44312      18.3       1986
 3 De 35 A 44 Años           36324      15.0       1830
 4 De 20 A 24 Años           21018       8.66      1577
 5 De 10 A 14 Años           20697       8.53      1404
 6 De 15 A 19 Años           20489       8.44      1477
 7 De 5 A 9 Años             14897       6.14      1260
 8 Mayores De 65 Años        14643       6.03      1350
 9 De 2 A 4 Años              4793       1.97       735
10 De 25 A 34 Anos            2995       1.23       503
# ℹ 18 more rows
# ℹ Use `print(n = ...)` to see more rows
…
